[
  {
    "id":"0001",
    "url_image":"png/Avion Espresso.png",
    "name":"Avion Espresso",
    "size":"1.75L",
    "regprice":"44.95",
    "savings":"5.00",
    "saleprice":"42.95"
  },
  {
    "id":"0002",
    "url_image":"png/Avion Reposado.png",
    "name":"Avion Reposado",
    "size":"1.75L",
    "regprice":"47.95",
    "savings":"6.00",
    "saleprice":"44.95"
  },
  {
    "id":"0003",
    "url_image":"png/AvionSilver.png",
    "name":"Avion Silver",
    "size":"1.75L",
    "regprice":"48.95",
    "savings":"7.00",
    "saleprice":"47.95"
  },
  {
    "id":"0004",
    "url_image":"png/BakersBourbon.png",
    "name":"Bakers Bourbon",
    "size":"1.75L",
    "regprice":"49.95",
    "savings":"8.00",
    "saleprice":"48.95"
  },
  {
    "id":"0005",
    "url_image":"png/Barrel Rested Cardinal Gin.png",
    "name":"Barrel Rested Cardinal Gin",
    "size":"1.75L",
    "regprice":"41.95",
    "savings":"9.00",
    "saleprice":"43.95"
  },
  {
    "id":"0006",
    "url_image":"png/Beefeater.png",
    "name":"Beefeater",
    "size":"1.75L",
    "regprice":"42.95",
    "savings":"4.00",
    "saleprice":"42.95"
  },
  {
    "id":"0007",
    "url_image":"png/Blackheart Spiced Rum.png",
    "name":"Blackheart Spiced Rum",
    "size":"1.75L",
    "regprice":"43.95",
    "savings":"4.00",
    "saleprice":"42.95"
  },
  {
    "id":"0008",
    "url_image":"png/BluecoatGin.png",
    "name":"Bluecoat Gin",
    "size":"1.75L",
    "regprice":"46.95",
    "savings":"4.00",
    "saleprice":"42.95"
  },
  {
    "id":"0009",
    "url_image":"png/BulleitRye.png",
    "name":"Bulleit Rye",
    "size":"1.75L",
    "regprice":"46.95",
    "savings":"4.00",
    "saleprice":"42.95"
  },
  {
    "id":"0010",
    "url_image":"png/CalicoJack CoconutRum.png",
    "name":"Calico Jack Coconut Rum",
    "size":"1.75L",
    "regprice":"46.95",
    "savings":"4.00",
    "saleprice":"42.95"
  },
  {
    "id":"0011",
    "url_image":"png/CatdaddySpicedMoonshine _horrible.png",
    "name":"Catdaddy Spiced Moonshine  horrible",
    "size":"1.75L",
    "regprice":"46.95",
    "savings":"4.00",
    "saleprice":"42.95"
  },
  {
    "id":"0012",
    "url_image":"png/CazadoresReposado.png",
    "name":"Cazadores Reposado",
    "size":"1.75L",
    "regprice":"46.95",
    "savings":"4.00",
    "saleprice":"42.95"
  },
  {
    "id":"0013",
    "url_image":"png/Chambord_Royale.png",
    "name":"Chambord Royale",
    "size":"1.75L",
    "regprice":"46.95",
    "savings":"4.00",
    "saleprice":"42.95"
  },
  {
    "id":"0014",
    "url_image":"png/ChivasRegal.png",
    "name":"Chivas Regal",
    "size":"1.75L",
    "regprice":"46.95",
    "savings":"4.00",
    "saleprice":"42.95"
  },
  {
    "id":"0015",
    "url_image":"png/CourvoisierXO.png",
    "name":"Courvoisier XO",
    "size":"1.75L",
    "regprice":"46.95",
    "savings":"4.00",
    "saleprice":"42.95"
  },
  {
    "id":"0016",
    "url_image":"png/DUsseVSOP.png",
    "name":"Dusse VSOP",
    "size":"1.75L",
    "regprice":"46.95",
    "savings":"4.00",
    "saleprice":"42.95"
  },
  {
    "id":"0017",
    "url_image":"png/DeepEddyVodka.png",
    "name":"Deep Eddy Vodka",
    "size":"1.75L",
    "regprice":"46.95",
    "savings":"4.00",
    "saleprice":"42.95"
  },
  {
    "id":"0018",
    "url_image":"png/Deep_eddy_rubyred.png",
    "name":"Deep Eddy Ruby Red",
    "size":"1.75L",
    "regprice":"46.95",
    "savings":"4.00",
    "saleprice":"42.95"
  },
  {
    "id":"0019",
    "url_image":"png/Dewars12Y.png",
    "name":"Dewars 12Y",
    "size":"1.75L",
    "regprice":"46.95",
    "savings":"4.00",
    "saleprice":"42.95"
  },
  {
    "id":"0020",
    "url_image":"png/DoubleCross_Vodka2.png",
    "name":"Double Cross Vodka2",
    "size":"1.75L",
    "regprice":"46.95",
    "savings":"4.00",
    "saleprice":"42.95"
  },
  {
    "id":"0021",
    "url_image":"png/ElijahCraig.png",
    "name":"ElijahCraig",
    "size":"1.75L",
    "regprice":"46.95",
    "savings":"4.00",
    "saleprice":"42.95"
  },
  {
    "id":"0022",
    "url_image":"png/Elijah_Craig.png",
    "name":"Elijah Craig",
    "size":"1.75L",
    "regprice":"46.95",
    "savings":"4.00",
    "saleprice":"42.95"
  },
  {
    "id":"0023",
    "url_image":"png/EvanWilliamsBlack.png",
    "name":"Evan Williams Black",
    "size":"1.75L",
    "regprice":"46.95",
    "savings":"4.00",
    "saleprice":"42.95"
  },
  {
    "id":"0024",
    "url_image":"png/Evan Williams Honey Reserve.png",
    "name":"Evan Williams Honey Reserve",
    "size":"1.75L",
    "regprice":"46.95",
    "savings":"4.00",
    "saleprice":"42.95"
  },
  {
    "id":"0025",
    "url_image":"png/EvanWilliamsSingleBarrelVintage.png",
    "name":"EvanWilliams Single Barrel Vintage",
    "size":"1.75L",
    "regprice":"46.95",
    "savings":"4.00",
    "saleprice":"42.95"
  },
  {
    "id":"0026",
    "url_image":"png/FireballCinnamonWhiskey.png",
    "name":"Fireball Cinnamon Whiskey",
    "size":"1.75L",
    "regprice":"46.95",
    "savings":"4.00",
    "saleprice":"42.95"
  },
  {
    "id":"0027",
    "url_image":"png/Firefly-Lemonade.png",
    "name":"Firefly Lemonade",
    "size":"1.75L",
    "regprice":"46.95",
    "savings":"4.00",
    "saleprice":"42.95"
  },
  {
    "id":"0028",
    "url_image":"png/FourRosesSingleBarrel.png",
    "name":"FourRoses Single Barrel",
    "size":"1.75L",
    "regprice":"46.95",
    "savings":"4.00",
    "saleprice":"42.95"
  },
  {
    "id":"0029",
    "url_image":"png/Frangelico.png",
    "name":"Frangelico",
    "size":"1.75L",
    "regprice":"46.95",
    "savings":"4.00",
    "saleprice":"42.95"
  },
  {
    "id":"0030",
    "url_image":"png/Fratello.png",
    "name":"Fratello",
    "size":"1.75L",
    "regprice":"46.95",
    "savings":"4.00",
    "saleprice":"42.95"
  },
  {
    "id":"0031",
    "url_image":"png/GDickel_12.png",
    "name":"GDickel 12",
    "size":"1.75L",
    "regprice":"46.95",
    "savings":"4.00",
    "saleprice":"42.95"
  }
]